@startuml

!define LIGHTBLUE
'!includeurl https://raw.githubusercontent.com/Drakemor/RedDress-PlantUML/master/style.puml
hide footbox

'__Title
title <b>"Personal Finance Management"</b>\nSequence Diagram of AccountID\n
'creation of Account ID'
'"us006CreatePersonAccountService : \nUS006CreatePersonAccountService" [#blue]->  "AccountID" : createAccountIDPerson(denomination, personID)
activate "AccountID" #34b7eb
create "accountID : \nAccountID"
"AccountID" [#blue]-->  "accountID : \nAccountID" : createAccountID \n(denomination, ownerID)
return <b>accountID</b>

deactivate "accountID : \nAccountID"

@enduml