{
	"info": {
		"_postman_id": "ff21256e-ed90-4beb-bca5-4e4a44bfdaa5",
		"name": "Sprint 5 - US002_1CreateGroupAsPersonInCharge",
		"schema": "https://schema.getpostman.com/json/collection/v2.1.0/collection.json"
	},
	"item": [
		{
			"name": "HappyCase_CreateGroupAsPersonInCharge",
			"event": [
				{
					"listen": "test",
					"script": {
						"id": "f9fd4320-8591-443f-ad03-2b16367d565c",
						"exec": [
							"pm.test(\"Response Status\", function () {",
							"    pm.response.to.have.status(201);",
							"});",
							"pm.test(\"Json Values\", function () {",
							"    var jsonData = pm.response.json();",
							"    pm.expect(jsonData.result).to.eql(true);",
							"    pm.expect(jsonData.msg).to.eql(\"Group created\");",
							"});"
						],
						"type": "text/javascript"
					}
				}
			],
			"request": {
				"method": "POST",
				"header": [],
				"body": {
					"mode": "raw",
					"raw": "{\n    \"email\": \"rita@gmail.com\",\n    \"denomination\": \"Old Friends\",\n    \"description\": \"Old friends from school\"\n}",
					"options": {
						"raw": {
							"language": "json"
						}
					}
				},
				"url": {
					"raw": "localhost:8080/createGroupAsPersonInCharge",
					"host": [
						"localhost"
					],
					"port": "8080",
					"path": [
						"createGroupAsPersonInCharge"
					]
				}
			},
			"response": []
		},
		{
			"name": "SadCase_TryToAddSameGroupTwoTimes",
			"event": [
				{
					"listen": "test",
					"script": {
						"id": "e108096d-2a0c-4709-a0da-a2c9f8f6ba6a",
						"exec": [
							"pm.test(\"Response Status\", function () {",
							"    pm.response.to.have.status(201);",
							"});",
							"pm.test(\"Json Values\", function () {",
							"    var jsonData = pm.response.json();",
							"    pm.expect(jsonData.result).to.eql(false);",
							"    pm.expect(jsonData.msg).to.eql(\"Group already exist\");",
							"});"
						],
						"type": "text/javascript"
					}
				}
			],
			"request": {
				"method": "POST",
				"header": [],
				"body": {
					"mode": "raw",
					"raw": "{\n    \"email\": \"rita@gmail.com\",\n    \"denomination\": \"Old Friends\",\n    \"description\": \"Old friends from school\"\n}",
					"options": {
						"raw": {
							"language": "json"
						}
					}
				},
				"url": {
					"raw": "localhost:8080/createGroupAsPersonInCharge",
					"host": [
						"localhost"
					],
					"port": "8080",
					"path": [
						"createGroupAsPersonInCharge"
					]
				}
			},
			"response": []
		},
		{
			"name": "SadCase_GroupAlreadyExiste",
			"event": [
				{
					"listen": "test",
					"script": {
						"id": "4f556b5e-ebca-4510-aad7-ad002624015c",
						"exec": [
							"pm.test(\"Response Status\", function () {",
							"    pm.response.to.have.status(201);",
							"});",
							"pm.test(\"Json Values\", function () {",
							"    var jsonData = pm.response.json();",
							"    pm.expect(jsonData.result).to.eql(false);",
							"    pm.expect(jsonData.msg).to.eql(\"Group already exist\");",
							"});"
						],
						"type": "text/javascript"
					}
				}
			],
			"request": {
				"method": "POST",
				"header": [],
				"body": {
					"mode": "raw",
					"raw": "{\n    \"email\": \"joao@gmail.com\",\n    \"denomination\": \"Silva Family\",\n    \"description\": \"All members of Silva Family\"\n}",
					"options": {
						"raw": {
							"language": "json"
						}
					}
				},
				"url": {
					"raw": "localhost:8080/createGroupAsPersonInCharge",
					"host": [
						"localhost"
					],
					"port": "8080",
					"path": [
						"createGroupAsPersonInCharge"
					]
				}
			},
			"response": []
		},
		{
			"name": "SadCase_PersonDoesNotExist",
			"event": [
				{
					"listen": "test",
					"script": {
						"id": "090d2fbf-1bc1-4ce7-b081-bf84129198b0",
						"exec": [
							"pm.test(\"Response Status\", function () {",
							"    pm.response.to.have.status(201);",
							"});",
							"pm.test(\"Json values\", function () {",
							"    var jsonData = pm.response.json();",
							"    pm.expect(jsonData.result).to.eql(false);",
							"    pm.expect(jsonData.msg).to.eql(\"Person does not exist\");",
							"});"
						],
						"type": "text/javascript"
					}
				}
			],
			"request": {
				"method": "POST",
				"header": [],
				"body": {
					"mode": "raw",
					"raw": "{\n    \"email\": \"valdemar@gmail.com\",\n    \"denomination\": \"do Vale Family\",\n    \"description\": \"All members of do Vale Family\"\n}",
					"options": {
						"raw": {
							"language": "json"
						}
					}
				},
				"url": {
					"raw": "localhost:8080/createGroupAsPersonInCharge",
					"host": [
						"localhost"
					],
					"port": "8080",
					"path": [
						"createGroupAsPersonInCharge"
					]
				}
			},
			"response": []
		}
	],
	"event": [
		{
			"listen": "prerequest",
			"script": {
				"id": "df9d715a-0570-48d7-a09a-0f179b169b6a",
				"type": "text/javascript",
				"exec": [
					""
				]
			}
		},
		{
			"listen": "test",
			"script": {
				"id": "5d108605-cf4d-467b-ad1b-7a7491a35011",
				"type": "text/javascript",
				"exec": [
					""
				]
			}
		}
	],
	"protocolProfileBehavior": {}
}