@startuml

scale 1.35

'__Layout
skinparam class {
BackgroundColor #F2F2F2
ArrowColor #404040
BorderColor #7F7F7F
}

skinparam classAttributeIconSize 0

left to right direction

'__Title
title <b>"Personal Finance Management"</b>\nDesign Class Diagram US_004

'__Design classes

class US004GroupsThatAreFamilyControllerREST {
+ getGroupThatAreFamily()
}

class US004GroupsThatAreFamilyService {
- personRepository : IPersonRepository
- groupRepository : IGroupRepository
+ getGroupThaAreFamily()
+ isFamily()
(...)
}

class GroupsThatAreFamilyDTOAssembler{
+ createDTOFromDomainObject()
(...)
}

class GroupsThatAreFamilyDTO{
- groupsThatAreFamily : List<GroupIDDTO>
+ getGroupThatAreFamily()

}

interface IGroupRepository {
}

class GroupRepository {
- groupRepo : List <Group>

+ getGroupRepo()
(...)
}


package AggregateGroup <<Folder>>{
class Group {
- groupID : GroupID
- peopleInCharge : List<PersonID>
- members : List<PersonID>

+ getAllMembers()
+ getGroupID()
(...)
}
}

interface IPersonRepository {
}

class PersonRepository {
- personRepo : List <Person>

+ findPersonByID()
(...)
}

package AggregatePerson <<Folder>>{
class Person {
- personID : PersonID
- mother : PersonID
- father : PersonID


+ getFather()
+ getMother()
(...)
}

'__Associations
'__Dependency relationships

US004GroupsThatAreFamilyControllerREST ..> US004GroupsThatAreFamilyService
US004GroupsThatAreFamilyService-->GroupsThatAreFamilyDTOAssembler
GroupsThatAreFamilyDTOAssembler--> GroupsThatAreFamilyDTO
US004GroupsThatAreFamilyService--> IGroupRepository
US004GroupsThatAreFamilyService--> IPersonRepository
IGroupRepository <.. GroupRepository
IPersonRepository <.. PersonRepository
GroupRepository "1" *--> "*" Group
PersonRepository "1" *-->"*" Person




'__Dependency relationships
'PersonRepository-{ Person

@enduml