@startuml
!define LIGHTBLUE
!includeurl https://raw.githubusercontent.com/Drakemor/RedDress-PlantUML/master/style.puml

'__Title
title
PERSONAL FINANCE MANAGEMENT

<u>US002.1</u> <b>Create a Group and become Person In Charge</b>
Controller REST Sequence Diagram - <i>Sprint 5</i>

end title

hide footbox

'__HTTP Client
participant ":HTTP Client"

'__Web Server
participant "TomCat (Web Server)"


'__ControllerREST
participant "US002_1CreateGroupControllerREST"


'__REF TomCat Generic Diagram
ref over ":HTTP Client", "TomCat (Web Server)", "US002_1CreateGroupControllerREST" : SD_Tomcat_Generic Processing Representation\n
"US002_1CreateGroupControllerREST" -[hidden]-> "US002_1CreateGroupControllerREST"


'__Assembler
participant "CreateGroupDTOAssembler"
activate "US002_1CreateGroupControllerREST"   #34b7eb
"US002_1CreateGroupControllerREST" [#blue]-> "CreateGroupDTOAssembler" : createDTOFromPrimitiveTypes(email, denomination, description)
                activate "CreateGroupDTOAssembler"   #34b7eb


'__Service
participant "us002_1CreateGroupService:\nUS002_1CreateGroupService"
participant LocalDate

"CreateGroupDTOAssembler" [#blue]-->  "createGroupDTO:\n CreateGroupDTO" ** : create()
return <b>createGroupDTO</b>


'__Service002_1 Starts
"US002_1CreateGroupControllerREST" [#blue]-> "us002_1CreateGroupService:\nUS002_1CreateGroupService" : createGroupAsPersonInCharge(createGroupDTO)
                    activate "us002_1CreateGroupService:\nUS002_1CreateGroupService"   #34b7eb

       ''__Get DTO parameters
"us002_1CreateGroupService:\nUS002_1CreateGroupService"  [#blue]-> "createGroupDTO:\n CreateGroupDTO": getEmail()
                        activate "createGroupDTO:\n CreateGroupDTO" #34b7eb
                        return <b>email</b>

"us002_1CreateGroupService:\nUS002_1CreateGroupService"  [#blue]-> "createGroupDTO:\n CreateGroupDTO": getDenomination()
                        activate "createGroupDTO:\n CreateGroupDTO" #34b7eb
                        return <b>denomination</b>

"us002_1CreateGroupService:\nUS002_1CreateGroupService"  [#blue]-> "createGroupDTO:\n CreateGroupDTO": getDescription()
                        activate "createGroupDTO:\n CreateGroupDTO" #34b7eb
                        return <b>description</b>

         ''__Verification
participant "PersonID"
"us002_1CreateGroupService:\nUS002_1CreateGroupService"  [#blue]-> "PersonID" : createPersonID
                    activate PersonID #34b7eb
"PersonID" [#blue]--> "personID :PersonID" **: create ()
                    return <b>personID</b>

"us002_1CreateGroupService:\nUS002_1CreateGroupService" [#blue]--> "PersonRepository" : existPerson(personID)
                    activate PersonRepository #34b7eb
                    return boolean <b>true</b>

participant "GroupID"
"us002_1CreateGroupService:\nUS002_1CreateGroupService" [#blue]--> "GroupID": createGroupID(denomination)
                    activate "GroupID" #34b7eb
"GroupID" [#blue]--> "groupID:GroupID" **: create ()
                    return <b>groupID</b>

participant PersonRepository
participant GroupRepository
participant LedgerRepository
participant "Group"

"us002_1CreateGroupService:\nUS002_1CreateGroupService" [#blue]--> "GroupRepository" : existGroup(groupID)
                    activate GroupRepository #34b7eb
                    return boolean <b>false</b>

       ''__Construction of groups parameters
"us002_1CreateGroupService:\nUS002_1CreateGroupService"  [#blue]-> "LocalDate" : now()
                     activate LocalDate #34b7eb
                     "LocalDate" [#blue]--> "dateOfCreation : LocalDate" **: create()
                     return <b>dateOfCreation</b>

"us002_1CreateGroupService:\nUS002_1CreateGroupService" [#blue]--> "groupLedger:Ledger" **: create()
                      activate "groupLedger:Ledger" #34b7eb
                      "groupLedger:Ledger" [#blue]-> "groupLedger:Ledger": getLedgerID()
                      return <b>ledgerID</b>

       ''__Create and save Group

"us002_1CreateGroupService:\nUS002_1CreateGroupService" [#blue]-> "Group" : createGroupAsPersonInCharge(denomination, personInCharge, description, dateOfCreation, ledgerID)
                      activate "Group" #34b7eb
                      "Group" [#blue]--> "newGroup:Group" **: create()
                      return newGroup

"us002_1CreateGroupService:\nUS002_1CreateGroupService" [#blue]-> "GroupRepository" : saveGroup(newGroup)
activate GroupRepository #34b7eb
return boolean <b>true</b>
"us002_1CreateGroupService:\nUS002_1CreateGroupService" [#blue]-> "LedgerRepository" : save(groupLedger)
activate LedgerRepository #34b7eb
return boolean <b>true</b>

"us002_1CreateGroupService:\nUS002_1CreateGroupService" [#blue]--> "CreateGroupDTOAssembler" : createDTOFromPrimitiveTypes (<b>result</b>, <b>SUCCESS</b>)
activate "CreateGroupDTOAssembler" #34b7eb
return  BooleanDTO <b>result</b>

return BooleanDTO <b>result</b>


deactivate "US002_1CreateGroupControllerREST"

'__Service002_1 Ends


'__REF TomCat Generic Diagram
ref over ":HTTP Client", "TomCat (Web Server)", "US002_1CreateGroupControllerREST" : SD_Tomcat_Generic Processing Representation\n


@enduml

