@startuml
!define LIGHTBLUE
!includeurl https://raw.githubusercontent.com/Drakemor/RedDress-PlantUML/master/style.puml

'__Title
title <b>"Personal Finance Management"</b>\nSequence Diagram US005_1CreateGroupCategoryControllerREST

hide footbox


participant ":HTTP Client"
participant "Tomcat (Web Server)"
participant ":US005_1CreateGroupCategoryControllerREST"

ref over ":HTTP Client", "Tomcat (Web Server)", ":US005_1CreateGroupCategoryControllerREST" : SD_Tomcat_Generic Processing Representation\n

":US005_1CreateGroupCategoryControllerREST" -[hidden]-> ":US005_1CreateGroupCategoryControllerREST"


activate ":US005_1CreateGroupCategoryControllerREST" #34b7eb

participant "CreateGroupCategoryDTOAssembler"

participant "us005_1CreateGroupCategoryService : \nUS005_1CreateGroupCategoryService"

":US005_1CreateGroupCategoryControllerREST" [#blue]->  "CreateGroupCategoryDTOAssembler" : createDTOFromPrimitiveTypes\n(email, groupDenomination, categoryDenomination)
activate "CreateGroupCategoryDTOAssembler" #34b7eb
create "createGroupCategoryDTO : \nCreateGroupCategoryDTO"
"CreateGroupCategoryDTOAssembler" [#blue]-->  "createGroupCategoryDTO : \nCreateGroupCategoryDTO" : create(email, groupDenomination,\n categoryDenomination)
return <b>createGroupCategoryDTO</b>
deactivate "CreateGroupCategoryDTOAssembler"


":US005_1CreateGroupCategoryControllerREST" [#blue]->  "us005_1CreateGroupCategoryService : \nUS005_1CreateGroupCategoryService" : createCategoryAsPersonInCharge(createGroupCategoryDTO)

participant "GroupID"

activate "us005_1CreateGroupCategoryService : \nUS005_1CreateGroupCategoryService" #34b7eb

"us005_1CreateGroupCategoryService : \nUS005_1CreateGroupCategoryService" [#blue]->  "createGroupCategoryDTO : \nCreateGroupCategoryDTO" : getGroupDenomination()
activate "createGroupCategoryDTO : \nCreateGroupCategoryDTO" #34b7eb
return String <b>groupDenominationFromDTO</b>
deactivate "createGroupCategoryDTO : \nCreateGroupCategoryDTO"

"us005_1CreateGroupCategoryService : \nUS005_1CreateGroupCategoryService" [#blue]->  "createGroupCategoryDTO : \nCreateGroupCategoryDTO" : getCategoryDenomination()
activate "createGroupCategoryDTO : \nCreateGroupCategoryDTO" #34b7eb
return String <b>categoryDenominationFromDTO</b>
deactivate "createGroupCategoryDTO : \nCreateGroupCategoryDTO"


"us005_1CreateGroupCategoryService : \nUS005_1CreateGroupCategoryService" [#blue]->  "createGroupCategoryDTO : \nCreateGroupCategoryDTO" : getPersonEmail()
activate "createGroupCategoryDTO : \nCreateGroupCategoryDTO" #34b7eb
return String <b>emailFromDTO</b>
deactivate "createGroupCategoryDTO : \nCreateGroupCategoryDTO"

"us005_1CreateGroupCategoryService : \nUS005_1CreateGroupCategoryService" [#blue]->  "GroupID" : createGroupID(groupDenominationFromDTO)
activate "GroupID" #34b7eb
create "groupID : \nGroupID"
"GroupID" [#blue]-->  "groupID : \nGroupID" : create\n(groupDenominationFromDTO)
return <b>groupID</b>
deactivate "groupID : \nGroupID"

"us005_1CreateGroupCategoryService : \nUS005_1CreateGroupCategoryService" [#blue]->  "CategoryID" : createCategoryID(categoryDenominationFromDTO, groupID)
activate "CategoryID" #34b7eb
create "categoryID : \nCategoryID"
"CategoryID" [#blue]-->  "categoryID : \nCategoryID" : create\n(categoryDenominationFromDTO)
return <b>categoryID</b>
deactivate "categoryID : \nCategoryID"

"us005_1CreateGroupCategoryService : \nUS005_1CreateGroupCategoryService" [#blue]->  "PersonID" : createPersonID(emailFromDTO)
activate "PersonID" #34b7eb
create "personID : \nPersonID"
"PersonID" [#blue]-->  "personID : \nPersonID" : create\n(emailFromDTO)
return <b>personID</b>
deactivate "personID : \nPersonID"

participant "groupRepo : \nGroupRepository"
participant "group : \nGroup"

"us005_1CreateGroupCategoryService : \nUS005_1CreateGroupCategoryService" [#blue]-> "groupRepo : \nGroupRepository" : findGroupByID(groupID)
activate "groupRepo : \nGroupRepository" #34b7eb
return Group <b>group</b>
deactivate "groupRepo : \nGroupRepository"

participant "catRepo : \nCategoryRepository"

"us005_1CreateGroupCategoryService : \nUS005_1CreateGroupCategoryService" [#blue]-> "catRepo : \nCategoryRepository" : existCategory(categoryID)
activate "catRepo : \nCategoryRepository" #34b7eb
return boolean <b>categoryExists</b>

"us005_1CreateGroupCategoryService : \nUS005_1CreateGroupCategoryService" [#blue]-> "group : \nGroup" :  isPersonInCharge(personID)
activate "group : \nGroup" #34b7eb
return boolean <b>isPersonInCharge</b>

"us005_1CreateGroupCategoryService : \nUS005_1CreateGroupCategoryService" [#blue]->  "Category" : createCategoryGroup(categoryDenominationFromDTO, groupID)
activate "Category" #34b7eb
create "category : \nCategory"
"Category" [#blue]-->  "category : \nCategory" : create(categoryDenominationFromDTO,\n groupID)
return <b>category</b>
deactivate "category : \nCategory"

"us005_1CreateGroupCategoryService : \nUS005_1CreateGroupCategoryService" [#blue]-> "catRepo : \nCategoryRepository" : saveCategory(category)
activate "catRepo : \nCategoryRepository" #34b7eb
return boolean <b>saveResult</b>

"us005_1CreateGroupCategoryService : \nUS005_1CreateGroupCategoryService" [#blue]-> "group : \nGroup" : addCategory(categoryID)
activate "group : \nGroup" #34b7eb
return boolean <b>addResult</b>

participant "BooleanDTOAssembler"

"us005_1CreateGroupCategoryService : \nUS005_1CreateGroupCategoryService" [#blue]->  "BooleanDTOAssembler" : createDTOFromPrimitiveTypes(addResult, SUCCESS)
activate "BooleanDTOAssembler" #34b7eb
create "booleanDTO : \nBooleanDTO"
"BooleanDTOAssembler" [#blue]-->  "booleanDTO : \nBooleanDTO" : create\n(addResult, SUCCESS)
return <b>booleanDTO</b>
deactivate "booleanDTO : \nBooleanDTO"


":US005_1CreateGroupCategoryControllerREST" <-- "us005_1CreateGroupCategoryService : \nUS005_1CreateGroupCategoryService": <b>booleanDTO</b>
deactivate "us005_1CreateGroupCategoryService : \nUS005_1CreateGroupCategoryService"


deactivate ":US005_1CreateGroupCategoryControllerREST"

ref over ":HTTP Client", "Tomcat (Web Server)", ":US005_1CreateGroupCategoryControllerREST" : SD_Tomcat_Generic Processing Representation\n


@enduml