@startuml

scale 1.35

'__Layout
skinparam class {
BackgroundColor #F2F2F2
ArrowColor #404040
BorderColor #7F7F7F
}

skinparam classAttributeIconSize 0

left to right direction

'__Title
title <b>"Personal Finance Management"</b>\nDesign Class Diagram US_03

'__Design classes

class Controller_US03 {
+ addPersonToGroup()
}

class Service_US03 {
+ addPersonToGroup()
(...)
}

interface IGroupRepository {
}

class GroupRepository {
- groupRepo : List <Group>

+ findGroupByGroupID()
+ existsGroup()
(...)
}

package AggregateGroup <<Folder>>{
class Group {
- groupID : GroupID

+ isPersonAlreadyMember()
+ addMember()
(...)
}
}

interface IPersonRepository {
}

class PersonRepository {
- personRepo : List <Person>

+ existPerson()
(...)
}

'__Associations
'__Dependency relationships

Controller_US03 ..> Service_US03
Service_US03--> IGroupRepository
Service_US03--> IPersonRepository
IGroupRepository <|.. GroupRepository
IPersonRepository <|.. PersonRepository
GroupRepository  "1"*-->"*" Group




'__Dependency relationships
'PersonRepository-{ Person

@enduml