@startuml
!define LIGHTBLUE
!includeurl https://raw.githubusercontent.com/Drakemor/RedDress-PlantUML/master/style.puml


hide footbox

participant ":testCreateAccount"

box "Users" #LightBlue
participant ":Person"
create "groupRunners:Group"
":testCreateAccount" [#blue]-> "groupRunners:Group": create("Runners",\n"People who come together to run",\n "18-12-2019")

end box
participant "accounts:AccountsList"
participant "newAccount:Account"
create "accounts:AccountsList"
"groupRunners:Group" [#blue]-> "accounts:AccountsList": create
"groupRunners:Group" [#blue]-> "accounts:AccountsList": createAccount("Margarida Salary Account","Salary")
create "newAccount:Account"
"accounts:AccountsList" [#blue]-> "newAccount:Account": create



"accounts:AccountsList" -> "accounts:AccountsList" : addAccount

@enduml