@startuml
!define LIGHTBLUE
!includeurl https://raw.githubusercontent.com/Drakemor/RedDress-PlantUML/master/style.puml

hide footbox
participant ":testController_US04"

create "controller_us04 : Controller_US04"
activate ":testController_US04" #34b7eb

":testController_US04" [#blue]--> "controller_us04 : Controller_US04": create


":testController_US04" [#blue]-> "controller_us04 : Controller_US04": groupsThatAreFamily(GroupRepository \n groupRepository, PersonRepository personRepository)
activate "controller_us04 : Controller_US04" #34b7eb

create "service_US04 : Service_US04"
"controller_us04 : Controller_US04" [#blue]-->  "service_US04 : Service_US04" : create
"controller_us04 : Controller_US04" [#blue]->  "service_US04 : Service_US04" : groupsThatAreFamily(GroupRepository \n groupRepository, PersonRepository personRepository)

participant "personRepository : PersonRepository"

participant "groupRepository:GroupRepository"
"service_US04 : Service_US04" [#blue]-> "groupRepository:GroupRepository" : getGroupRepo()
activate "groupRepository:GroupRepository" #34b7eb
return List<Group> <b>listGroups</b>


loop for each group


"service_US04 : Service_US04" [#blue]-> "service_US04 : Service_US04" : groupID =  isFamily(group, \n personRepository)

opt groupID != null
"service_US04 : Service_US04" [#blue]-> "service_US04 : Service_US04" : add(groupID)

end
end


participant "expectedGroupID:List <GroupID>"

"controller_us04 : Controller_US04" <-- "service_US04 : Service_US04": List <GroupID> <b>result</b>
":testController_US04" <-- "controller_us04 : Controller_US04": List <GroupID> <b>result</b>
deactivate "controller_us04 : Controller_US04"


":testController_US04" [#blue]-> ":testController_US04": assertEquals(expectedGroupID, <b>result</b>)


@enduml
