@startuml
!define LIGHTBLUE
!includeurl https://raw.githubusercontent.com/Drakemor/RedDress-PlantUML/master/style.puml

hide footbox
participant ":testController_US05_1"

create "controller_us05_1 : \nController_US05_1"
activate ":testController_US05_1" #34b7eb
":testController_US05_1" [#blue]-->  "controller_us05_1 : \nController_US05_1" : create(service_US05_1)


":testController_US05_1" [#blue]-> "controller_us05_1 : \nController_US05_1": createCategoryAsPersonInCharge\n(email, groupDenomination, categoryDenomination)
activate "controller_us05_1 : \nController_US05_1" #34b7eb

participant "service_US05_1 : \nService_US05_1"
note over "service_US05_1 : \nService_US05_1"
    The repositories are 
    attributes of the service
end note

participant "US05_1_Assembler"
"controller_us05_1 : \nController_US05_1" [#blue]->  "US05_1_Assembler" : createDTOFromPrimitiveTypes\n(email, groupDenomination, categoryDenomination)
activate "US05_1_Assembler" #34b7eb
create "us05_1_DTO : \nUS05_1_DTO"
"US05_1_Assembler" [#blue]-->  "us05_1_DTO : \nUS05_1_DTO" : create(email, groupDenomination,\n categoryDenomination)
return <b>us05_1_DTO</b>
deactivate "US05_1_Assembler"

"controller_us05_1 : \nController_US05_1" [#blue]->  "service_US05_1 : \nService_US05_1" : createCategoryAsPersonInCharge(us05_1_DTO)

participant "GroupID"

activate "service_US05_1 : \nService_US05_1" #34b7eb

"service_US05_1 : \nService_US05_1" [#blue]->  "us05_1_DTO : \nUS05_1_DTO" : getGroupDenomination()
activate "us05_1_DTO : \nUS05_1_DTO" #34b7eb
return String <b>groupDenominationFromDTO</b>
deactivate "us05_1_DTO : \nUS05_1_DTO"

"service_US05_1 : \nService_US05_1" [#blue]->  "us05_1_DTO : \nUS05_1_DTO" : getCategoryDenomination()
activate "us05_1_DTO : \nUS05_1_DTO" #34b7eb
return String <b>categoryDenominationFromDTO</b>
deactivate "us05_1_DTO : \nUS05_1_DTO"


"service_US05_1 : \nService_US05_1" [#blue]->  "us05_1_DTO : \nUS05_1_DTO" : getPersonEmail()
activate "us05_1_DTO : \nUS05_1_DTO" #34b7eb
return String <b>emailFromDTO</b>
deactivate "us05_1_DTO : \nUS05_1_DTO"

"service_US05_1 : \nService_US05_1" [#blue]->  "GroupID" : createGroupID(groupDenominationFromDTO)
activate "GroupID" #34b7eb
create "groupID : \nGroupID"
"GroupID" [#blue]-->  "groupID : \nGroupID" : createGroupID\n(groupDenominationFromDTO)
return <b>groupID</b>
deactivate "groupID : \nGroupID"

"service_US05_1 : \nService_US05_1" [#blue]->  "CategoryID" : createCategoryIDGroup(categoryDenominationFromDTO, groupID)
activate "CategoryID" #34b7eb
create "categoryID : \nCategoryID"
"CategoryID" [#blue]-->  "categoryID : \nCategoryID" : createCategoryID\n(categoryDenominationFromDTO)
return <b>categoryID</b>
deactivate "categoryID : \nCategoryID"

"service_US05_1 : \nService_US05_1" [#blue]->  "PersonID" : createPersonID(emailFromDTO)
activate "PersonID" #34b7eb
create "personID : \nPersonID"
"PersonID" [#blue]-->  "personID : \nPersonID" : createPersonID\n(emailFromDTO)
return <b>personID</b>
deactivate "personID : \nPersonID"

participant "groupRepo : \nGroupRepository"
participant "group : \nGroup"

"service_US05_1 : \nService_US05_1" [#blue]-> "groupRepo : \nGroupRepository" : findGroupByID(groupID)
activate "groupRepo : \nGroupRepository" #34b7eb
return Group <b>group</b>
deactivate "groupRepo : \nGroupRepository"

participant "catRepo : \nCategoryRepository"

"service_US05_1 : \nService_US05_1" [#blue]-> "catRepo : \nCategoryRepository" : existCategory(categoryID)
activate "catRepo : \nCategoryRepository" #34b7eb
return boolean <b>categoryExists</b>

"service_US05_1 : \nService_US05_1" [#blue]-> "group : \nGroup" :  isPersonInCharge(personID)
activate "group : \nGroup" #34b7eb
return boolean <b>isPersonInCharge</b>

"service_US05_1 : \nService_US05_1" [#blue]-> "group : \nGroup" : checkIfGroupHasCategory(categoryID)
activate "group : \nGroup" #34b7eb
return boolean <b>groupHasCategory</b>

alt (!categoryExists && isPersonInCharge && !groupHasCategory) == true

"service_US05_1 : \nService_US05_1" [#blue]->  "Category" : createCategoryGroup(categoryDenominationFromDTO, groupID)
activate "Category" #34b7eb
create "category : \nCategory"
"Category" [#blue]-->  "category : \nCategory" : create(categoryDenominationFromDTO,\n groupID)
return <b>category</b>
deactivate "category : \nCategory"

"service_US05_1 : \nService_US05_1" [#blue]-> "catRepo : \nCategoryRepository" : saveCategory(category)
activate "catRepo : \nCategoryRepository" #34b7eb
return boolean <b>saveResult</b>

"service_US05_1 : \nService_US05_1" [#blue]-> "group : \nGroup" : addCategory(categoryID)
activate "group : \nGroup" #34b7eb
return boolean <b>addResult</b>

"controller_us05_1 : \nController_US05_1" <-- "service_US05_1 : \nService_US05_1": boolean <b>result</b> = true



else else

"controller_us05_1 : \nController_US05_1" <-- "service_US05_1 : \nService_US05_1": boolean <b>result</b> = false
deactivate "service_US05_1 : \nService_US05_1"


end

":testController_US05_1" <-- "controller_us05_1 : \nController_US05_1": boolean <b>result</b>
deactivate "controller_us05_1 : \nController_US05_1"


":testController_US05_1" [#blue]-> ":testController_US05_1": assertEquals(true, result)
":testController_US05_1" [#blue]-> ":testController_US05_1": assertEquals(true, categoryRepo.existsCategory(categoryID))
":testController_US05_1" [#blue]-> ":testController_US05_1": assertEquals(true, group.checkIfGroupHasCategory(categoryID))

@enduml