@startuml

scale 1.35

'__Layout
skinparam class {
BackgroundColor #F2F2F2
ArrowColor #404040
BorderColor #7F7F7F
}

skinparam classAttributeIconSize 0

left to right direction

'__Title
title <b>"Personal Finance Management"</b>\nDesign Class Diagram US_02.1

'__Design classes

class Controller_US02_1 {
+ createGroupAsPersonInCharge()
}

class Service_US02_1 {
+ createGroupAsPersonInCharge()
}

interface IPersonRepository {
}

class PersonRepository {
- personRepo : List <Person>

+ existPerson()
(...)
}

package AggregatePerson <<Folder>>{
class Person {
- personID : personID
}
}

interface IGroupRepository {
}

class GroupRepository {
- groupRepo : List <Group>

+ existGroup()
+ saveGroup()
(...)
}

package AggregateGroup <<Folder>>{
class Group {
- groupID: groupID
- description : Description
- personInCharge : PersonID
- dateOfCreation : Date
- ledgerId : LedgerID

+ createGroupAsPersonInCharge()
(...)
}
}

'__Associations
'__Dependency relationships

Controller_US02_1 ..> Service_US02_1
Service_US02_1--> IGroupRepository
Service_US02_1--> IPersonRepository
IGroupRepository <.. GroupRepository
IPersonRepository <.. PersonRepository
GroupRepository "1" *--> "*" Group
PersonRepository "1" *--> "*" Person

@enduml